[
  {
    "id": 5,
    "model": "Dragunov sniper rifle",
    "handy": 2,
    "origin": "Ukraine",
    "ttc": {
      "rangeParameter": {
        "maximumFiringRange": 3000,
        "distanceRange": "HIGH",
        "effectiveFiringRange": 1000
      },
      "hasMagazine": true,
      "hasTelescopicSight": false
    },
    "material": "Steal"
  },
  {
    "id": 1,
    "model": "M4",
    "handy": 2,
    "origin": "USA",
    "ttc": {
      "rangeParameter": {
        "maximumFiringRange": 1000,
        "distanceRange": "MEDIUM",
        "effectiveFiringRange": 700
      },
      "hasMagazine": true,
      "hasTelescopicSight": false
    },
    "material": "Steal"
  },
  {
    "id": 2,
    "model": "Pistol",
    "handy": 1,
    "origin": "EU",
    "ttc": {
      "rangeParameter": {
        "maximumFiringRange": 400,
        "distanceRange": "LOW",
        "effectiveFiringRange": 100
      },
      "hasMagazine": true,
      "hasTelescopicSight": false
    },
    "material": "Steal"
  }
]